%YAML 1.1
%TAG !u! tag:unity3d.com,2011:
--- !u!78 &1
TagManager:
  serializedVersion: 2
  tags:
  - Piece
  - Tile
  - BlackPiece
  - WhitePiece
  layers:
  - Default
  - TransparentFX
  - Ignore Raycast
  - 
  - Water
  - UI
  - 
  - 
  - Effects
  - Piece
  - 
  - 
  - 
  - 
  - 
  - 
  - 
  - 
  - 
  - 
  - 
  - 
  - 
  - 
  - 
  - 
  - 
  - 
  - 
  - 
  - 
  - 
  m_SortingLayers:
  - name: Default
    uniqueID: 0
    locked: 0
  - name: Tiles
    uniqueID: 1818178513
    locked: 0
  - name: Effect
    uniqueID: 3510371603
    locked: 0
  - name: Piece
    uniqueID: 2799853041
    locked: 0
